<svg xmlns="http://www.w3.org/2000/svg" width="19.194" height="17.324" viewBox="0 0 19.194 17.324">
  <g id="Group_514" data-name="Group 514" transform="translate(0.8 0.8)">
    <g id="Group_369" data-name="Group 369">
      <path id="Path_241" data-name="Path 241" d="M18.189,5.419a4.768,4.768,0,0,0-6.786,0,4.862,4.862,0,0,0-.606.748,4.862,4.862,0,0,0-.606-.748,4.768,4.768,0,0,0-6.786,0,4.873,4.873,0,0,0,0,6.847L10.8,19.724l7.391-7.458A4.873,4.873,0,0,0,18.189,5.419Z" transform="translate(-2.001 -4)" fill="none" stroke="#c8c8c8" stroke-linecap="round" stroke-linejoin="round" stroke-miterlimit="10" stroke-width="1.6"/>
    </g>
  </g>
</svg>
