<svg xmlns="http://www.w3.org/2000/svg" width="23.673" height="21.178" viewBox="0 0 23.673 21.178">
  <path id="Path_322" data-name="Path 322" d="M26.149,10.8a.561.561,0,0,0-.511-.3H18.865L15.683,4.451a.587.587,0,0,0-1.006,0L11.495,10.5H4.722a.561.561,0,0,0-.511.3.453.453,0,0,0,.111.535L9.338,15.95,7.321,23.115a.465.465,0,0,0,.2.513.615.615,0,0,0,.611.035l7.045-3.575,7.045,3.575a.614.614,0,0,0,.611-.035.465.465,0,0,0,.2-.513L21.022,15.95l5.015-4.619A.453.453,0,0,0,26.149,10.8Z" transform="translate(-3.343 -3.367)" fill="none" stroke="#c8c8c8" stroke-width="1.6"/>
</svg>
